<?xml version="1.0" encoding="utf-8"?>
<!-- Generator: Adobe Illustrator 21.0.0, SVG Export Plug-In . SVG Version: 6.00 Build 0)  -->
<svg version="1.1" id="Capa_1" xmlns="http://www.w3.org/2000/svg" xmlns:xlink="http://www.w3.org/1999/xlink" x="0px" y="0px"
	 viewBox="0 0 477.2 477.2" style="enable-background:new 0 0 477.2 477.2;" xml:space="preserve">
<style type="text/css">
	.st0{fill:#FE7544;}
</style>
<path class="st0" d="M360.7,229.1L135.6,4c-5.3-5.3-18.4-5.6-21.5,7.6c-1.6,6.8-1.3,444-0.9,452.6c0.5,10.6,9.5,12.9,12.9,12.9
	c3.4,0,6.9-1.3,9.5-4l225.1-225.1C365.9,242.9,365.9,234.3,360.7,229.1z M208.5,283.3c-24.6,0-44.5-19.9-44.5-44.5
	s19.9-44.5,44.5-44.5c24.6,0,44.5,19.9,44.5,44.5S233.1,283.3,208.5,283.3z"/>
</svg>
